//HOME2
///GROUP 3,63,3,0,0,0,0,0,0,0,0,0,0,0,0,0,0,0,0,0,0,0,0,0,0,0,0,0,0,0,0,0,0,1,1,0
131072,0
130001,-45004,-51292,2201
27,1,0,0
0,0
-1,-3,0,0
0,0,0,0
0,0
0,0,0,0
0,0,0,0
0,0
0,0,0,0
0,0,0,0
0,0
0,0,0,0
0,0,0,0
0,0
0,0,0,0
0,0,0,0
0,0
0,0,0,0
0,0,0,0
0,0
0,0,0,0
0,0,0,0
0,0
0,0,0,0
0,0,0,0
0,0
0,0,0,0
0,0,0,0
0,0
0,0,0,0
0,0,0,0
0,0
0,0,0,0
0,0,0,0
0,0
0,0,0,0
0,0,0,0
0,0
0,0,0,0
0,0,0,0
0,0
0,0,0,0
0,0,0,0
0,0
0,0,0,0
0,0,0,0
0,0
0,0,0,0
0,0,0,0
0,0
0,0,0,0
0,0,0,0
0,0
0,0,0,0
0,0,0,0
0,0
0,0,0,0
0,0,0,0
0,0
0,0,0,0
0,0,0,0
0,0
0,0,0,0
0,0,0,0
0,0
0,0,0,0
0,0,0,0
0,0
0,0,0,0
0,0,0,0
0,0
0,0,0,0
0,0,0,0
0,0
0,0,0,0
0,0,0,0
0,0
0,0,0,0
0,0,0,0
0,0
0,0,0,0
0,0,0,0
0,0
0,0,0,0
0,0,0,0
0,0
0,0,0,0
0,0,0,0
0,0
0,0,0,0
0,0,0,0
0,0
0,0,0,0
0,0,0,0
