//VAR
///PFNUM 6,0,2,0
///SHARE 100,100,100,100,100,128,0,128
///B
0,72,0,0,0,0,0,0,0,0
2,1,0,0,15,0,0,0,0,0
0,0,0,0,0,0,0,0,0,0
0,0,0,0,0,0,0,0,0,0
0,0,0,0,0,0,0,0,0,0
0,0,0,0,0,0,0,0,0,0
0,0,0,0,0,0,0,0,0,0
0,1,2,3,4,5,6,7,8,9
10,11,12,13,14,15,16,17,18,19
1,0,22,0,0,0,0,0,0,1
///I
35,7,0,0,0,0,0,1000,1100,5
5,2,10,0,0,0,0,0,0,0
0,0,0,0,0,0,0,0,0,0
0,0,0,0,0,0,0,0,0,0
0,0,0,0,0,0,0,0,0,0
0,0,0,0,0,0,0,0,0,0
0,0,0,0,0,0,0,0,0,0
0,0,0,0,0,0,0,0,0,0
0,0,0,0,0,0,0,0,0,0
0,0,0,0,0,0,0,0,0,0
///D
0,0,0,0,0,0,0,0,0,2
100000,110000,0,1498,291,899483,0,0,0,0
101392,114401,4006,108,-61,-15865,0,0,0,0
1000,1100,0,0,0,0,0,0,0,0
0,0,30000,5000,0,0,0,0,0,0
0,0,0,0,0,0,0,0,0,0
60000,0,0,0,0,0,0,0,0,0
10000,27500,26000,0,0,0,0,0,0,0
0,0,0,0,0,0,0,0,0,0
6566,0,0,0,0,0,0,0,1000,1000000
///R
 1.500000E+02,0,0,0,0,0,0,0,0,0
0,0,0,0,0,0,0,0,0,0
0,0,0,0,0,0,0,0,0,0
0,0,0,0,0,0,0,0,0,0
0,0,0,0,0,0,0,0,0,0
0,0,0,0,0,0,0,0,0,0
0,0,0,0,0,0,0,0,0,0
0,0,0,0,0,0,0,0,0,0
0,0,0,0,0,0,0,0,0,0
0,0,0,0,0,0,0,0, 5.500000E+02, 3.400000E+01
///S
ATTENZIONE.
MACCHINA
NON IN CICLO

RIPRISTINARE.
CONTINUA






























































































///P
"PULSE"0,0,1,000000000000000000000000,0,0,-214074,-25830,-106100,19412,94932,-21092,0,0
"RECTAN"0,1,0,001000000000000000000000,0,19,0.000,0.000,0.000,0.1719,-0.1813,135.9981,0.0000,0.0000
"RECTAN"0,4,1,001000000000000000000000,0,19,-0.013,0.014,-3.595,-0.1959,0.5267,120.1826,0.0000,0.0000
"RECTAN"0,3,0,001010000000000000000000,0,19,-0.012,-0.007,1.497,0.1433,-0.6699,53.4997,0.0000,0.0000
"RECTAN"0,1,1,001000000000000000000000,0,19,1.392,4.401,4.006,-0.3253,0.1516,60.4064,0.0000,0.0000
"RECTAN"0,2,1,000000000000000000000000,0,19,0.000,0.000,10.000,22.1378,-6.5484,-151.5217,0.0000,0.0000
"RECTAN"0,2,0,001000000000000000000000,0,19,-25.576,-0.509,65.660,-15.7429,-14.4928,-31.0586,0.0000,0.0000
"UNUSED"
"UNUSED"
"UNUSED"
"RECTAN"0,1,0,001000000000000000000000,0,19,100.000,110.000,0.000,0.1719,-0.1813,135.9981,0.0000,0.0000
"UNUSED"
"UNUSED"
"UNUSED"
"UNUSED"
"UNUSED"
"UNUSED"
"UNUSED"
"UNUSED"
"UNUSED"
"RECTAN"0,1,1,001000000000000000000000,0,19,101.392,114.401,4.006,-0.3253,0.1516,60.4064,0.0000,0.0000
"UNUSED"
"UNUSED"
"UNUSED"
"UNUSED"
"UNUSED"
"UNUSED"
"UNUSED"
"UNUSED"
"UNUSED"
"RECTAN"0,3,0,001010000000000000000000,0,19,0.000,0.000,-0.200,0.0000,0.0000,0.0000,0.0000,0.0000
"UNUSED"
"UNUSED"
"UNUSED"
"UNUSED"
"UNUSED"
"UNUSED"
"UNUSED"
"UNUSED"
"UNUSED"
"UNUSED"
"UNUSED"
"UNUSED"
"UNUSED"
"UNUSED"
"UNUSED"
"UNUSED"
"UNUSED"
"UNUSED"
"UNUSED"
"UNUSED"
"UNUSED"
"UNUSED"
"UNUSED"
"UNUSED"
"UNUSED"
"UNUSED"
"UNUSED"
"UNUSED"
"UNUSED"
"UNUSED"
"UNUSED"
"UNUSED"
"UNUSED"
"UNUSED"
"UNUSED"
"UNUSED"
"UNUSED"
"UNUSED"
"UNUSED"
"UNUSED"
"UNUSED"
"UNUSED"
"UNUSED"
"UNUSED"
"UNUSED"
"UNUSED"
"UNUSED"
"UNUSED"
"UNUSED"
"UNUSED"
"UNUSED"
"UNUSED"
"UNUSED"
"UNUSED"
"UNUSED"
"UNUSED"
"UNUSED"
"UNUSED"
"UNUSED"
"UNUSED"
"RECTAN"0,5,2,000000000000000000000000,0,19,0.006,0.009,0.002,-89.9951,0.0270,-89.9855,0.0000,0.0000
"UNUSED"
"UNUSED"
"UNUSED"
"UNUSED"
"UNUSED"
"UNUSED"
"UNUSED"
"UNUSED"
"RECTAN"0,5,2,000000000000000000000000,0,19,4.000,2.000,0.000,-90.0307,0.0257,-90.0169,0.0000,0.0000
"UNUSED"
"UNUSED"
"UNUSED"
"UNUSED"
"UNUSED"
"UNUSED"
"UNUSED"
"UNUSED"
"UNUSED"
"UNUSED"
"UNUSED"
"UNUSED"
"UNUSED"
"UNUSED"
"UNUSED"
"UNUSED"
"UNUSED"
"UNUSED"
"UNUSED"
"UNUSED"
"UNUSED"
"UNUSED"
"UNUSED"
"UNUSED"
"UNUSED"
"UNUSED"
"PULSE"0,0,0,000000000000000000000000,0,0,-127150,0,0,0,0,0,0,0
///BP
///EX
"PULSE"0,0,0,000000000000000000000000,0,0,0,0,0,0,0,0,0,0
"PULSE"0,0,0,000000000000000000000000,0,0,122831,1725317,0,0,0,0,0,0
"UNUSED"
"UNUSED"
"UNUSED"
"UNUSED"
"UNUSED"
"UNUSED"
"UNUSED"
"UNUSED"
"UNUSED"
"UNUSED"
"UNUSED"
"UNUSED"
"UNUSED"
"UNUSED"
"UNUSED"
"UNUSED"
"UNUSED"
"UNUSED"
"UNUSED"
"UNUSED"
"UNUSED"
"UNUSED"
"UNUSED"
"UNUSED"
"UNUSED"
"UNUSED"
"UNUSED"
"UNUSED"
"UNUSED"
"UNUSED"
"UNUSED"
"UNUSED"
"UNUSED"
"UNUSED"
"UNUSED"
"UNUSED"
"UNUSED"
"UNUSED"
"UNUSED"
"UNUSED"
"UNUSED"
"UNUSED"
"UNUSED"
"UNUSED"
"UNUSED"
"UNUSED"
"UNUSED"
"UNUSED"
"UNUSED"
"UNUSED"
"UNUSED"
"UNUSED"
"UNUSED"
"UNUSED"
"UNUSED"
"UNUSED"
"UNUSED"
"UNUSED"
"UNUSED"
"UNUSED"
"UNUSED"
"UNUSED"
"UNUSED"
"UNUSED"
"UNUSED"
"UNUSED"
"UNUSED"
"UNUSED"
"UNUSED"
"UNUSED"
"UNUSED"
"UNUSED"
"UNUSED"
"UNUSED"
"UNUSED"
"UNUSED"
"UNUSED"
"UNUSED"
"UNUSED"
"UNUSED"
"UNUSED"
"UNUSED"
"UNUSED"
"UNUSED"
"UNUSED"
"UNUSED"
"UNUSED"
"UNUSED"
"UNUSED"
"UNUSED"
"UNUSED"
"UNUSED"
"UNUSED"
"UNUSED"
"UNUSED"
"UNUSED"
"UNUSED"
"UNUSED"
"UNUSED"
"UNUSED"
"UNUSED"
"UNUSED"
"UNUSED"
"UNUSED"
"UNUSED"
"UNUSED"
"UNUSED"
"UNUSED"
"UNUSED"
"UNUSED"
"UNUSED"
"UNUSED"
"UNUSED"
"UNUSED"
"UNUSED"
"UNUSED"
"UNUSED"
"UNUSED"
"UNUSED"
"UNUSED"
"UNUSED"
"UNUSED"
"UNUSED"
"UNUSED"
"UNUSED"
"UNUSED"
