//VARNAME
///SHARE 1000,1000,1000,1000,1000,1024,1024,1024
///B
0000 1,0,AZZERA CAS
0001 1,0,CONTA CASS
0010 1,0,CONTA FILE
0071 1,0,PRIMO CASSETTO
0094 1,0,ULTIMO CASSETTO
0011 1,0,CONTA COLONNE
0005 1,0,FINE CICLO
0004 1,0,FINE PALLET
0020 1,0,SCARTO PZ































































































































































































































































































































































































































































































































































































































































































































































































































































































































































































































///I
0000 1,0,CONTA PEZZI
0001 1,0,CONTA CAMP
0004 1,0,ABIL.SOL CAR-SCA
0007 1,0,INTERASSE IN X
0008 1,0,INTERASSE IN Y
0009 1,0,N PEZZI IN X
0010 1,0,N PEZZI IN Y
0011 1,0,INSERIM. PZ CNC
0012 1,0,QUOTA DEPO CAMP
0013 1,0,N FREQ.PZ CAMP
0003 1,0,ABILI.PZ.IN.CH





























































































































































































































































































































































































































































































































































































































































































































































































































































































































































































































///D








































































































































































































































































































































































































































































































































































































































































































































































































































































































































































































































///R
0099 1,0,QUOTA ASSE EXT
0000 1,0,POSIZ.CASSETTO






































































































































































































































































































































































































































































































































































































































































































































































































































































































































































































































///S








































































































































































































































































































































































































































































































































































































































































































































































































































































































































































































































///P
0001 1,0,PRELIEVO
0002 1,0,SCARICO CN
0003 1,0,CARICO CN
0004 1,0,DEPOSITO 
0005 1,0,CAMPIONE
0006 1,0,MARCATURA
0007 1,0,RIBALTA PR
0008 1,0,RIB-DP
























































































































































































































































































































































































































































































































































































































































































































































































































































































































































































































































///BP
































































































































































































































































































































































































































































































































































































































































































































































































































































































































































































































































///EX
0001 1,0,POS ZERO































































































































































































































































































































































































































































































































































































































































































































































































































































































































































































































































