//VAR
///PFNUM 6,0,2,0
///SHARE 100,100,100,100,100,128,0,128
///B
0,79,0,0,0,0,0,0,0,0
4,0,0,0,15,0,0,0,0,0
0,0,0,0,0,0,0,0,0,0
0,0,0,0,0,0,0,0,0,0
0,0,0,0,0,0,0,0,0,0
0,0,0,0,0,0,0,0,0,0
0,0,0,0,0,0,0,0,0,0
0,0,0,0,0,0,0,0,8,0
10,0,12,0,14,0,16,0,18,0
0,0,22,23,24,0,0,0,0,0
///I
45,15,0,0,0,5,1,1000,1100,5
5,2,10,0,0,0,0,0,0,0
0,0,0,0,0,0,0,0,0,0
0,0,0,0,0,0,0,0,0,0
0,0,0,0,0,0,0,0,0,0
0,0,0,0,0,0,0,0,0,0
0,0,0,0,0,0,0,0,0,0
0,0,0,0,0,0,0,0,0,0
0,0,0,0,0,0,0,0,0,0
0,0,0,0,0,0,0,0,0,0
///D
0,0,0,0,0,0,0,-500,500,677
299997,-1,-14998,1498,291,899483,0,0,0,0
300853,3942,-10227,108,-61,-15865,0,0,0,0
3000,0,0,0,0,0,0,0,0,0
0,0,30000,5000,0,0,0,0,0,0
0,0,0,0,0,0,0,0,0,0
60000,0,0,0,0,0,0,0,0,0
10000,27500,26000,0,0,0,0,0,0,0
0,0,0,0,0,0,0,0,0,0
6566,0,0,0,0,0,0,0,1000,1000000
///R
 1.500000E+02,0,0,0,0,0,0,0,0,0
0,0,0,0,0,0,0,0,0,0
0,0,0,0,0,0,0,0,0,0
0,0,0,0,0,0,0,0,0,0
0,0,0,0,0,0,0,0,0,0
0,0,0,0,0,0,0,0,0,0
0,0,0,0,0,0,0,0,0,0
0,0,0,0,0,0,0,0,0,0
0,0,0,0,0,0,0,0,0,0
0,0,0,0,0,0,0,0, 5.500000E+02, 3.870000E+02
///S
Atten.alla.Confi
VUOI AZZERARE
IL PALLET

confermare.!.
...SI..



...NO..


























































































///P
"PULSE"0,0,1,000000000000000000000000,0,0,-214074,-25830,-106100,19412,94932,-21092,0,0
"RECTAN"0,1,0,001000000000000000000000,0,19,-0.003,-0.001,-14.998,0.1691,-0.1818,135.9914,0.0000,0.0000
"RECTAN"0,4,0,001010000000000000000000,0,19,1.277,0.353,-9.317,0.1930,-0.5253,-59.8210,0.0000,0.0000
"RECTAN"0,3,1,001000000000000000000000,0,19,-0.271,-1.518,6.423,0.2208,-0.2452,-126.3717,0.0000,0.0000
"RECTAN"0,1,1,001000000000000000000000,0,19,0.853,3.942,-10.227,-0.3251,0.1522,60.4067,0.0000,0.0000
"RECTAN"0,2,1,000000000000000000000000,0,19,0.000,0.000,10.000,22.1378,-6.5484,-151.5217,0.0000,0.0000
"RECTAN"0,2,0,001000000000000000000000,0,19,-25.576,-0.509,65.660,-15.7429,-14.4928,-31.0586,0.0000,0.0000
"UNUSED"
"UNUSED"
"UNUSED"
"RECTAN"0,1,0,001000000000000000000000,0,19,299.997,-0.001,-14.998,0.1691,-0.1818,135.9914,0.0000,0.0000
"UNUSED"
"UNUSED"
"UNUSED"
"UNUSED"
"UNUSED"
"UNUSED"
"UNUSED"
"UNUSED"
"UNUSED"
"RECTAN"0,1,1,001000000000000000000000,0,19,300.853,3.942,-10.227,-0.3251,0.1522,60.4067,0.0000,0.0000
"UNUSED"
"UNUSED"
"UNUSED"
"UNUSED"
"UNUSED"
"UNUSED"
"UNUSED"
"UNUSED"
"UNUSED"
"RECTAN"0,3,1,001000000000000000000000,0,19,0.000,0.000,-0.200,0.0000,0.0000,0.0000,0.0000,0.0000
"UNUSED"
"UNUSED"
"UNUSED"
"UNUSED"
"UNUSED"
"UNUSED"
"UNUSED"
"UNUSED"
"UNUSED"
"UNUSED"
"UNUSED"
"UNUSED"
"UNUSED"
"UNUSED"
"UNUSED"
"UNUSED"
"UNUSED"
"UNUSED"
"UNUSED"
"UNUSED"
"UNUSED"
"UNUSED"
"UNUSED"
"UNUSED"
"UNUSED"
"UNUSED"
"UNUSED"
"UNUSED"
"UNUSED"
"UNUSED"
"UNUSED"
"UNUSED"
"UNUSED"
"UNUSED"
"UNUSED"
"UNUSED"
"UNUSED"
"UNUSED"
"UNUSED"
"UNUSED"
"UNUSED"
"UNUSED"
"UNUSED"
"UNUSED"
"UNUSED"
"UNUSED"
"UNUSED"
"UNUSED"
"UNUSED"
"UNUSED"
"UNUSED"
"UNUSED"
"UNUSED"
"UNUSED"
"UNUSED"
"UNUSED"
"UNUSED"
"UNUSED"
"UNUSED"
"UNUSED"
"RECTAN"0,5,2,000000000000000000000000,0,19,0.002,0.002,-4.994,-90.0002,0.0260,-89.9856,0.0000,0.0000
"UNUSED"
"UNUSED"
"UNUSED"
"UNUSED"
"UNUSED"
"UNUSED"
"UNUSED"
"UNUSED"
"RECTAN"0,5,2,000000000000000000000000,0,19,4.000,2.000,0.000,-90.0307,0.0257,-90.0169,0.0000,0.0000
"UNUSED"
"UNUSED"
"UNUSED"
"UNUSED"
"UNUSED"
"UNUSED"
"UNUSED"
"UNUSED"
"UNUSED"
"UNUSED"
"UNUSED"
"UNUSED"
"UNUSED"
"UNUSED"
"UNUSED"
"UNUSED"
"UNUSED"
"UNUSED"
"UNUSED"
"UNUSED"
"UNUSED"
"UNUSED"
"UNUSED"
"UNUSED"
"UNUSED"
"UNUSED"
"PULSE"0,0,0,000000000000000000000000,0,0,-127150,0,0,0,0,0,0,0
///BP
///EX
"PULSE"0,0,0,000000000000000000000000,0,0,0,0,0,0,0,0,0,0
"PULSE"0,0,0,000000000000000000000000,0,0,122831,323659,0,0,0,0,0,0
"UNUSED"
"UNUSED"
"UNUSED"
"UNUSED"
"UNUSED"
"UNUSED"
"UNUSED"
"UNUSED"
"UNUSED"
"UNUSED"
"UNUSED"
"UNUSED"
"UNUSED"
"UNUSED"
"UNUSED"
"UNUSED"
"UNUSED"
"UNUSED"
"UNUSED"
"UNUSED"
"UNUSED"
"UNUSED"
"UNUSED"
"UNUSED"
"UNUSED"
"UNUSED"
"UNUSED"
"UNUSED"
"UNUSED"
"UNUSED"
"UNUSED"
"UNUSED"
"UNUSED"
"UNUSED"
"UNUSED"
"UNUSED"
"UNUSED"
"UNUSED"
"UNUSED"
"UNUSED"
"UNUSED"
"UNUSED"
"UNUSED"
"UNUSED"
"UNUSED"
"UNUSED"
"UNUSED"
"UNUSED"
"UNUSED"
"UNUSED"
"UNUSED"
"UNUSED"
"UNUSED"
"UNUSED"
"UNUSED"
"UNUSED"
"UNUSED"
"UNUSED"
"UNUSED"
"UNUSED"
"UNUSED"
"UNUSED"
"UNUSED"
"UNUSED"
"UNUSED"
"UNUSED"
"UNUSED"
"UNUSED"
"UNUSED"
"UNUSED"
"UNUSED"
"UNUSED"
"UNUSED"
"UNUSED"
"UNUSED"
"UNUSED"
"UNUSED"
"UNUSED"
"UNUSED"
"UNUSED"
"UNUSED"
"UNUSED"
"UNUSED"
"UNUSED"
"UNUSED"
"UNUSED"
"UNUSED"
"UNUSED"
"UNUSED"
"UNUSED"
"UNUSED"
"UNUSED"
"UNUSED"
"UNUSED"
"UNUSED"
"UNUSED"
"UNUSED"
"UNUSED"
"UNUSED"
"UNUSED"
"UNUSED"
"UNUSED"
"UNUSED"
"UNUSED"
"UNUSED"
"UNUSED"
"UNUSED"
"UNUSED"
"UNUSED"
"UNUSED"
"UNUSED"
"UNUSED"
"UNUSED"
"UNUSED"
"UNUSED"
"UNUSED"
"UNUSED"
"UNUSED"
"UNUSED"
"UNUSED"
"UNUSED"
"UNUSED"
"UNUSED"
"UNUSED"
"UNUSED"
"UNUSED"
